0a1,5
> 10007
> 10009
> 1001
> 10013
> 10016
1a7
> 10019
2a9,12
> 100287932
> 10036
> 10038
> 10040
3a14
> 10049
4a16,33
> 10062
> 10067
> 10072
> 10073
> 10075
> 10076
> 1009
> 10092
> 10095
> 10097
> 10109
> 10112
> 10127
> 10130
> 10131
> 10134
> 10139
> 10142
5a35,45
> 10153
> 10155
> 1017
> 1018
> 10189
> 1019
> 10190
> 10196
> 10197
> 1020
> 10200
6a47,66
> 1021
> 10212
> 10213
> 1022
> 10221
> 10236
> 10238
> 10243
> 10248
> 10250
> 10253
> 10262
> 10270
> 10282
> 10285
> 10288
> 1029
> 10293
> 103
> 10301
7a68,70
> 10313
> 10327
> 1033
8a72,78
> 10342
> 10363
> 10370
> 10376
> 10383
> 10403
> 10419
9a80
> 10426
10a82,129
> 10436
> 10440
> 10459
> 10460
> 10465
> 10466
> 10467
> 10472
> 10474
> 10480
> 10482
> 10489
> 10492
> 10494
> 10498
> 10514
> 10526
> 10528
> 10533
> 10537
> 10538
> 10539
> 1054
> 10541
> 10542
> 10549
> 10557
> 10558
> 10564
> 10565
> 10572
> 10574
> 10575
> 10576
> 1058
> 10598
> 10606
> 10607
> 10615
> 10618
> 1062
> 10621
> 10625
> 10626
> 1063
> 10635
> 10644
> 10652
11a131,133
> 10664
> 10713
> 10714
12a135,175
> 10725
> 10728
> 10730
> 10732
> 10733
> 10735
> 10746
> 10762
> 10765
> 10772
> 10773
> 10783
> 10785
> 10799
> 10807
> 10808
> 10813
> 10847
> 10849
> 10856
> 10898
> 10902
> 10906
> 10907
> 10910
> 10914
> 10915
> 10919
> 10920
> 10921
> 10922
> 10923
> 10926
> 10927
> 10933
> 10935
> 10940
> 10945
> 10946
> 10950
> 10953
13a177,186
> 10963
> 10972
> 10973
> 10987
> 10988
> 10989
> 10992
> 11006
> 11033
> 11035
14a188,196
> 11047
> 1105
> 11051
> 11052
> 11060
> 11064
> 11065
> 1107
> 11073
15a198,209
> 1108
> 11082
> 11100
> 11103
> 1111
> 11113
> 11116
> 11127
> 11128
> 11130
> 11137
> 11138
16a211,250
> 11156
> 11164
> 11170
> 11171
> 11178
> 11179
> 11183
> 11190
> 11196
> 11198
> 11200
> 11214
> 11218
> 1122
> 11226
> 1123
> 11235
> 1124
> 11260
> 11266
> 11276
> 11282
> 11284
> 112840
> 112858
> 112939
> 11311
> 11315
> 11316
> 113174
> 11325
> 11329
> 11333
> 11335
> 11338
> 11340
> 113878
> 114034
> 1147
> 114790
17a252,256
> 114822
> 115106
> 115426
> 1159
> 1160
18a258,265
> 116225
> 1163
> 1164
> 116840
> 117145
> 117178
> 1175
> 1184
19a267,273
> 1191
> 1192
> 1196
> 1198
> 1207
> 1211
> 121268
20a275,290
> 1215
> 122769
> 1230
> 123169
> 1235
> 125950
> 126070
> 127002
> 1277
> 1281
> 1282
> 1288
> 128869
> 1289
> 1290
> 1294
21a292,321
> 1300
> 1301
> 130872
> 1311
> 1314
> 1315
> 134728
> 1363
> 1365
> 1386
> 1388
> 140890
> 140901
> 1410
> 142
> 1431
> 143187
> 1432
> 1434
> 143689
> 1445
> 1453
> 1457
> 1460
> 1462
> 146722
> 146956
> 1478
> 1479
> 148156
22a323,332
> 1488
> 1493
> 149371
> 1499
> 1503
> 1508
> 1511
> 151636
> 151987
> 1520
23a334,356
> 1535
> 1537
> 154
> 157310
> 160
> 1600
> 1605
> 1611
> 1616
> 161742
> 162
> 163
> 1633
> 164
> 1642
> 164312
> 1649
> 165
> 1653
> 1654
> 166
> 1660
> 1665
24a358,380
> 1674
> 1676
> 1677
> 1719
> 1736
> 1737
> 1739
> 176
> 1781
> 1785
> 1786
> 1788
> 1789
> 1796
> 1805
> 1829
> 183
> 1831
> 1837
> 1843
> 1846
> 1854
> 1855
25a382,397
> 1861
> 1869
> 1871
> 1874
> 1875
> 1876
> 1894
> 19
> 1902
> 1906
> 192111
> 1936
> 1945
> 1947
> 1951
> 196
26a399,404
> 1965
> 1967
> 1968
> 1974
> 1981
> 1982
27a406,412
> 1984
> 1991
> 1994
> 1997
> 1998
> 1999
> 20
28a414
> 2002
29a416,432
> 2017
> 2022
> 2023
> 2029
> 2035
> 2036
> 2037
> 2048
> 204851
> 2058
> 2059
> 2064
> 2065
> 2068
> 207
> 2071
> 2073
30a434,436
> 2077
> 2079
> 2091
31a438
> 2104
32a440
> 2120
33a442,485
> 2130
> 2131
> 2140
> 2146
> 2149
> 2151
> 2152
> 2153
> 2162
> 2167
> 2175
> 2176
> 2177
> 2186
> 2187
> 2188
> 2189
> 2191
> 2193
> 2194
> 219541
> 2199
> 2205
> 2207
> 2209
> 220988
> 221079
> 221154
> 2212
> 2214
> 2222
> 2237
> 225689
> 226
> 2264
> 2273
> 22795
> 22796
> 2280
> 22801
> 22803
> 22809
> 22818
> 22827
34a487
> 22839
35a489,495
> 2288
> 22883
> 22887
> 22889
> 22894
> 22906
> 22907
36a497,501
> 22913
> 22915
> 22916
> 22919
> 22926
37a503,537
> 22934
> 22936
> 22948
> 2296
> 22974
> 22976
> 22984
> 22985
> 23
> 23013
> 23016
> 23019
> 23020
> 23028
> 23032
> 23043
> 23049
> 2305
> 23054
> 23062
> 23085
> 23092
> 23113
> 23126
> 23129
> 2314
> 23149
> 23162
> 23163
> 23164
> 2317
> 23191
> 23193
> 23199
> 23203
38a539
> 2321
40a542,549
> 23265
> 23277
> 23279
> 23286
> 23287
> 23309
> 2332
> 2335
41a551,564
> 23353
> 23360
> 23367
> 23369
> 23381
> 23385
> 23386
> 2339
> 23392
> 23404
> 23405
> 23411
> 23420
> 23421
42a566,573
> 23450
> 23451
> 23463
> 23471
> 23476
> 23499
> 23512
> 23513
44a576,577
> 23560
> 23583
46a580,582
> 23595
> 23607
> 23613
47a584,602
> 23636
> 23637
> 23649
> 23654
> 23658
> 23659
> 23677
> 23759
> 23779
> 23787
> 2395
> 24137
> 2475
> 2512
> 2521
> 2526
> 253260
> 253461
> 253980
48a604,607
> 2562
> 2563
> 256364
> 25788
49a609,616
> 25801
> 25804
> 25836
> 25839
> 25855
> 25865
> 25885
> 25894
51a619,626
> 25913
> 25920
> 25926
> 259266
> 25928
> 25934
> 25942
> 25950
52a628,629
> 25988
> 26003
53a631,673
> 26013
> 26019
> 26031
> 26036
> 26039
> 26056
> 26058
> 26064
> 26073
> 26088
> 26100
> 26130
> 26133
> 26135
> 26150
> 26151
> 26168
> 2617
> 26190
> 26205
> 26233
> 2627
> 26271
> 26272
> 26292
> 2633
> 26353
> 2643
> 2648
> 26505
> 26508
> 26523
> 26574
> 26586
> 2664
> 26747
> 2677
> 26973
> 26985
> 26986
> 27
> 27000
> 27005
54a675,681
> 27036
> 27043
> 27044
> 27085
> 27101
> 27102
> 27113
58a686,693
> 27229
> 27242
> 27301
> 27316
> 27332
> 27336
> 2734
> 27343
59a695,701
> 2744
> 2771
> 2773
> 2783
> 2788
> 2801
> 2821
60a703
> 284058
61a705,713
> 284403
> 285464
> 285527
> 286075
> 286826
> 286827
> 2872
> 2886
> 2893
62a715,731
> 28964
> 28973
> 28985
> 28987
> 29028
> 2906
> 29066
> 29068
> 291
> 29107
> 29109
> 29110
> 29115
> 29123
> 29127
> 2919
> 2923
63a733,735
> 2932
> 2934
> 2960
64a737,755
> 2963
> 2965
> 2967
> 2968
> 2969
> 2971
> 2972
> 2977
> 29789
> 29843
> 29882
> 29883
> 29888
> 29893
> 29894
> 29896
> 29920
> 29941
> 29959
65a757,808
> 29982
> 29990
> 29992
> 30000
> 30011
> 3014
> 3015
> 3017
> 302
> 3020
> 3054
> 3065
> 3066
> 3068
> 308
> 30836
> 30849
> 3087
> 3091
> 3092
> 3093
> 31
> 3105
> 3106
> 3109
> 3146
> 3148
> 3150
> 3151
> 3159
> 317
> 3172
> 3174
> 3178
> 3181
> 3182
> 3183
> 3184
> 3185
> 3187
> 3189
> 3191
> 3192
> 3195
> 3205
> 3206
> 3207
> 3209
> 3216
> 3217
> 3224
> 3225
67a811,843
> 3251
> 3267
> 3276
> 328
> 3281
> 329
> 3297
> 3301
> 3308
> 3309
> 3312
> 3313
> 332
> 3320
> 3326
> 3329
> 3336
> 3339
> 3364
> 337867
> 3383
> 338692
> 3394
> 3475
> 3482
> 3486
> 351
> 3516
> 355
> 3551
> 3559
> 3566
> 3601
68a845
> 3608
69a847
> 3619
70a849,857
> 3624
> 3627
> 3636
> 3643
> 3646
> 3654
> 3655
> 3656
> 3661
71a859,861
> 3676
> 3683
> 3687
72a863,888
> 3689
> 3691
> 3692
> 3693
> 3703
> 3714
> 3716
> 3718
> 3735
> 376267
> 3777
> 3791
> 3796
> 3799
> 3815
> 3832
> 3835
> 3836
> 3837
> 3838
> 3839
> 3840
> 3842
> 3843
> 3845
> 3855
73a890,902
> 387338
> 3875
> 3895
> 3912
> 3918
> 3920
> 3936
> 3937
> 3964
> 3978
> 3980
> 3984
> 3985
74a904,905
> 4001
> 4008
75a907,910
> 4015
> 402
> 4040
> 4041
76a912,913
> 4055
> 4059
77a915,919
> 4067
> 4071
> 4074
> 4077
> 4085
78a921
> 4089
79a923,925
> 4094
> 4116
> 4122
80a927,937
> 4140
> 4141
> 4152
> 4155
> 4157
> 4170
> 4171
> 4172
> 4173
> 4174
> 4175
81a939,944
> 4179
> 4188
> 4192
> 4193
> 4216
> 4217
82a946,953
> 4233
> 4234
> 4236
> 4237
> 4254
> 4288
> 4292
> 4296
83a955,959
> 4312
> 4314
> 4316
> 4318
> 4319
84a961,963
> 4321
> 4323
> 4331
85a965,969
> 440193
> 440275
> 4436
> 4486
> 4487
86a971,981
> 4591
> 4602
> 4605
> 4637
> 4638
> 4646
> 4647
> 4650
> 4651
> 4653
> 466
87a983,986
> 4670
> 4673
> 4676
> 4678
88a988,1006
> 4686
> 4691
> 47
> 472
> 4723
> 473
> 4738
> 4751
> 4752
> 476
> 4763
> 4775
> 4790
> 4791
> 4794
> 4798
> 4800
> 4801
> 4802
89a1008,1018
> 4836
> 4841
> 4846
> 4848
> 4849
> 4854
> 4855
> 4863
> 4869
> 4893
> 4897
90a1020,1027
> 4927
> 4928
> 4967
> 4973
> 4982
> 4998
> 4999
> 5000
91a1029,1035
> 5013
> 5036
> 50484
> 50488
> 5049
> 5050
> 5054
93a1038,1051
> 50628
> 5073
> 5074
> 50807
> 50813
> 5082
> 50848
> 509
> 5094
> 50943
> 51002
> 51008
> 51013
> 51014
94a1053,1055
> 51053
> 51070
> 51073
95a1057
> 5110
96a1059,1062
> 51132
> 51176
> 51182
> 5119
97a1064,1067
> 51205
> 51247
> 51256
> 51259
98a1069,1071
> 51272
> 5129
> 51319
100a1074,1076
> 51330
> 5134
> 51340
101a1078,1080
> 51360
> 51361
> 51362
102a1082,1089
> 51366
> 51367
> 51371
> 51377
> 5141
> 51433
> 51434
> 51440
103a1091,1098
> 51460
> 51497
> 51499
> 51510
> 51514
> 51529
> 51534
> 51535
104a1100,1101
> 5155
> 51564
105a1103,1132
> 5159
> 51592
> 51593
> 51599
> 5160
> 51604
> 51631
> 51651
> 51654
> 51667
> 51690
> 51692
> 51701
> 51706
> 51719
> 51726
> 51729
> 51735
> 51742
> 51747
> 51755
> 51804
> 5187
> 5192
> 5194
> 52
> 5202
> 5203
> 5204
> 5208
106a1134,1146
> 5228
> 5236
> 5245
> 5250
> 5269
> 5271
> 5272
> 5277
> 5279
> 5286
> 5287
> 5289
> 5315
107a1148,1152
> 5320
> 5328
> 5329
> 5330
> 53339
108a1154,1157
> 53371
> 53405
> 5347
> 5348
110a1160
> 5359
112a1163,1168
> 5364
> 5366
> 5371
> 5372
> 5378
> 5393
113a1170,1178
> 54
> 540
> 5411
> 54205
> 5422
> 5423
> 5424
> 5425
> 5426
114a1180,1197
> 5431
> 5433
> 5436
> 5437
> 5440
> 54431
> 54453
> 54461
> 54464
> 54475
> 54476
> 545
> 5451
> 54512
> 54532
> 54535
> 54556
> 54567
115a1199,1202
> 5460
> 54606
> 54625
> 5464
116a1204,1206
> 5469
> 54704
> 54751
117a1208,1230
> 54778
> 5478
> 5479
> 5480
> 5481
> 54812
> 54820
> 54822
> 54830
> 54840
> 54856
> 54874
> 54880
> 54881
> 54888
> 54902
> 54913
> 54921
> 54929
> 54932
> 5495
> 54961
> 54962
118a1232
> 54972
119a1234,1238
> 550
> 55003
> 55023
> 55037
> 55041
121a1241,1265
> 55055
> 55093
> 5511
> 55110
> 55114
> 55119
> 55120
> 55127
> 55139
> 55143
> 55144
> 55147
> 55148
> 55165
> 55183
> 55186
> 5519
> 55191
> 55198
> 5520
> 55209
> 55215
> 55227
> 55230
> 55250
122a1267,1269
> 5528
> 55285
> 55291
123a1271,1272
> 55308
> 5531
124a1274,1278
> 55339
> 5534
> 55342
> 55355
> 5536
125a1280,1281
> 55374
> 55388
126a1283,1286
> 5550
> 55540
> 55578
> 55591
127a1288,1289
> 55612
> 5562
128a1291,1295
> 55627
> 55646
> 55660
> 55665
> 55681
129a1297,1300
> 55692
> 55704
> 55718
> 55722
130a1302,1306
> 55729
> 55734
> 55738
> 55741
> 55746
131a1308,1338
> 5575
> 55755
> 55758
> 55761
> 5577
> 55770
> 55775
> 55785
> 55814
> 5582
> 55832
> 55835
> 5584
> 55872
> 5589
> 5590
> 5591
> 55916
> 55920
> 55922
> 55971
> 5601
> 5604
> 5605
> 5610
> 5611
> 56243
> 56252
> 56288
> 5631
> 5635
132a1340,1351
> 5663
> 56647
> 5682
> 5683
> 5684
> 56848
> 5685
> 56852
> 5686
> 5687
> 5688
> 5689
133a1353,1363
> 56897
> 5690
> 56902
> 5691
> 56915
> 5692
> 56926
> 5693
> 56937
> 56943
> 5695
134a1365,1373
> 56990
> 56992
> 56996
> 5701
> 57018
> 57019
> 5704
> 57060
> 5707
135a1375,1379
> 57092
> 5710
> 57109
> 57120
> 57122
136a1381,1404
> 57154
> 5716
> 57162
> 5717
> 57179
> 5718
> 57180
> 5719
> 5725
> 57326
> 57332
> 57403
> 57405
> 57447
> 57455
> 5747
> 57472
> 57489
> 57506
> 57510
> 57532
> 57534
> 5757
> 57591
137a1406,1413
> 57634
> 5764
> 57649
> 57662
> 57670
> 57679
> 5770
> 57703
138a1415,1418
> 57715
> 57727
> 5775
> 57761
139a1420,1454
> 57786
> 5780
> 5781
> 57819
> 5782
> 57820
> 5786
> 5788
> 5791
> 5792
> 5795
> 5800
> 581
> 5810
> 5828
> 5830
> 58487
> 58490
> 58500
> 58525
> 58533
> 5863
> 5869
> 5870
> 5872
> 5876
> 5877
> 5879
> 5883
> 5885
> 5887
> 5888
> 5890
> 5892
> 5900
140a1456,1463
> 5902
> 5903
> 5905
> 5911
> 5927
> 5928
> 5929
> 5930
141a1465,1469
> 5931
> 5932
> 5933
> 59343
> 59349
142a1471,1473
> 5955
> 5965
> 597
143a1475,1484
> 5976
> 598
> 5982
> 5983
> 5984
> 5985
> 5987
> 599
> 5997
> 5998
144a1486,1489
> 60313
> 6041
> 60436
> 6045
145a1491,1497
> 60491
> 60492
> 60496
> 60528
> 60561
> 6059
> 6100
146a1499,1502
> 6128
> 6133
> 6139
> 6169
148a1505,1513
> 6185
> 6197
> 6201
> 6203
> 6208
> 6210
> 6238
> 6240
> 6242
149a1515,1526
> 6285
> 6294
> 6305
> 6311
> 6338
> 6340
> 6348
> 6349
> 6358
> 636
> 637
> 638
151a1529
> 63893
152a1531
> 63925
153a1533,1546
> 63967
> 63971
> 6399
> 641
> 64129
> 64130
> 64151
> 6416
> 6418
> 6421
> 64210
> 64219
> 6422
> 6426
154a1548,1549
> 6428
> 6431
156a1552,1559
> 64326
> 64328
> 6434
> 64395
> 64403
> 64420
> 64421
> 64422
157a1561,1569
> 6452
> 6456
> 64682
> 64708
> 6472
> 64745
> 64746
> 64750
> 6477
158a1571,1573
> 64773
> 64780
> 64837
159a1575,1639
> 649
> 64919
> 6495
> 6498
> 6502
> 65057
> 65078
> 65080
> 65109
> 65110
> 65117
> 6520
> 6525
> 65264
> 6532
> 6597
> 6601
> 6602
> 6603
> 6605
> 661
> 6611
> 6615
> 6617
> 6621
> 6623
> 6624
> 6625
> 6626
> 6627
> 6628
> 6629
> 6631
> 6632
> 6633
> 6634
> 6635
> 6636
> 6637
> 6638
> 6648
> 6651
> 6659
> 6662
> 6663
> 6668
> 6670
> 6672
> 6678
> 6687
> 6696
> 6709
> 672
> 6720
> 6729
> 6732
> 6733
> 6741
> 6744
> 6745
> 6747
> 6749
> 675
> 6772
> 6773
161a1642,1654
> 6778
> 6780
> 6789
> 6790
> 6809
> 6810
> 6811
> 6813
> 682
> 6829
> 6832
> 6835
> 6839
162a1656,1676
> 6873
> 6874
> 6875
> 6877
> 6878
> 6880
> 6885
> 6890
> 6891
> 6892
> 6895
> 6901
> 6904
> 6905
> 6927
> 6928
> 6929
> 6934
> 6938
> 6942
> 6944
163a1678
> 6950
164a1680,1686
> 6996
> 701
> 7020
> 7024
> 7027
> 7037
> 7045
165a1688,1690
> 7050
> 7052
> 7058
166a1692,1693
> 7072
> 7076
167a1695,1716
> 7083
> 7086
> 7097
> 7110
> 7111
> 7112
> 7122
> 7133
> 7150
> 7153
> 7156
> 7157
> 7158
> 7159
> 7167
> 7168
> 7169
> 717
> 7171
> 7175
> 7181
> 7184
168a1718,1729
> 7187
> 7189
> 7203
> 7204
> 7247
> 7248
> 7249
> 7257
> 7266
> 7267
> 7283
> 7290
170a1732
> 7297
171a1734,1743
> 7307
> 7317
> 7319
> 7321
> 7323
> 7329
> 7334
> 7335
> 7337
> 7341
172a1745,1746
> 7355
> 7360
173a1748,1781
> 7392
> 7398
> 7407
> 7408
> 7410
> 7411
> 7416
> 7422
> 7428
> 7429
> 7443
> 7444
> 7453
> 7456
> 7469
> 7472
> 7486
> 7511
> 7514
> 7516
> 7517
> 7520
> 7525
> 7528
> 7529
> 7531
> 7532
> 7534
> 7553
> 7554
> 7597
> 7701
> 7703
> 7704
174a1783
> 7750
175a1785,1786
> 7804
> 7818
176a1788,1792
> 790
> 79003
> 79005
> 79026
> 79050
178a1795,1796
> 79077
> 79084
179a1798,1843
> 79109
> 7913
> 79139
> 79159
> 7916
> 7917
> 79184
> 7919
> 79364
> 7942
> 79571
> 79576
> 79577
> 79586
> 79595
> 79612
> 79637
> 7965
> 79663
> 79666
> 79710
> 79718
> 79723
> 79728
> 79813
> 79833
> 79850
> 79869
> 79879
> 79915
> 79959
> 79980
> 800
> 80021
> 80028
> 80063
> 80142
> 80143
> 80146
> 80155
> 80174
> 80196
> 80198
> 8021
> 8027
> 8028
180a1845,1856
> 8038
> 80705
> 80725
> 8073
> 80781
> 80851
> 8087
> 8089
> 8091
> 8100
> 8106
> 811
181a1858,1863
> 8148
> 81559
> 81570
> 81605
> 81608
> 81609
182a1865
> 81620
183a1867,1871
> 8189
> 81890
> 81928
> 81932
> 8195
184a1873,1883
> 8208
> 821
> 8239
> 8243
> 8260
> 8289
> 829
> 8291
> 8295
> 8312
> 8317
187a1887,1917
> 83540
> 83548
> 83596
> 83658
> 83666
> 83732
> 8379
> 83855
> 83933
> 83937
> 83985
> 83990
> 840
> 84067
> 84079
> 841
> 84152
> 84168
> 84172
> 84206
> 84280
> 84285
> 843
> 84324
> 8438
> 84444
> 8445
> 84464
> 8449
> 8450
> 8451
189a1920,1954
> 84612
> 84661
> 84687
> 84705
> 84726
> 8473
> 84733
> 8476
> 84775
> 8480
> 8481
> 84816
> 8487
> 84875
> 84894
> 84905
> 84959
> 84962
> 84978
> 8500
> 85015
> 8502
> 85021
> 8514
> 8525
> 8535
> 8540
> 85403
> 8541
> 85415
> 85440
> 85444
> 8548
> 8550
> 8559
190a1956,1961
> 8565
> 8567
> 8569
> 8573
> 8575
> 86
192a1964,1966
> 8607
> 861
> 8614
194a1969
> 8650
195a1971
> 8662
196a1973,1981
> 8664
> 8666
> 8667
> 8668
> 8669
> 8672
> 8675
> 8678
> 868
197a1983,1987
> 8683
> 87
> 871
> 8717
> 8718
198a1989,1993
> 8728
> 873
> 8731
> 8733
> 8738
199a1995,1999
> 8754
> 8764
> 8767
> 8771
> 8772
200a2001,2008
> 8774
> 8795
> 8797
> 8804
> 8805
> 8812
> 8813
> 8818
202a2011,2017
> 8829
> 8837
> 8841
> 8853
> 8859
> 887
> 8871
203a2019,2040
> 8877
> 8878
> 8880
> 8881
> 8883
> 8886
> 8887
> 8888
> 889
> 8890
> 8891
> 8893
> 8898
> 8899
> 890
> 8904
> 8906
> 891
> 8914
> 892
> 8943
> 89790
204a2042,2065
> 8985
> 899
> 90
> 9015
> 9019
> 9025
> 9031
> 904
> 90427
> 90441
> 9047
> 905
> 9055
> 90678
> 9069
> 9076
> 90850
> 9088
> 9091
> 9093
> 90933
> 9094
> 9099
> 9100
205a2067,2072
> 9111
> 9112
> 9113
> 9123
> 9126
> 9128
206a2074,2101
> 9131
> 9133
> 9134
> 9135
> 9136
> 9139
> 9141
> 9146
> 9150
> 91544
> 9156
> 9169
> 9170
> 9175
> 91782
> 9179
> 9180
> 9181
> 9183
> 9184
> 9208
> 9212
> 92170
> 9219
> 9220
> 9221
> 9232
> 9238
207a2103,2106
> 92595
> 9260
> 92609
> 9270
208a2108,2165
> 92799
> 9282
> 9295
> 93
> 9314
> 9319
> 9320
> 9326
> 9328
> 9329
> 9330
> 9332
> 9343
> 9344
> 93643
> 9371
> 93974
> 9400
> 9406
> 941
> 9410
> 9414
> 942
> 9425
> 9439
> 9448
> 9462
> 9466
> 9470
> 9474
> 948
> 949
> 9491
> 9493
> 9495
> 9499
> 9512
> 9519
> 9521
> 9522
> 9527
> 9530
> 9533
> 9555
> 9564
> 9569
> 9584
> 9585
> 960
> 9600
> 961
> 9610
> 9611
> 9616
> 9641
> 9643
> 9656
> 9669
209a2167
> 96764
210a2169,2173
> 9690
> 9698
> 9704
> 971
> 9726
211a2175,2177
> 9735
> 9771
> 9774
212a2179,2183
> 9793
> 9794
> 9804
> 9810
> 9814
213a2185,2186
> 9816
> 9820
214a2188,2194
> 9826
> 983
> 9833
> 9839
> 9841
> 9849
> 9855
215a2196
> 9859
216a2198,2212
> 9869
> 9877
> 9878
> 988
> 9882
> 9883
> 9887
> 9898
> 990
> 9904
> 9907
> 9908
> 991
> 9913
> 9921
217a2214,2216
> 993
> 9937
> 9939
219c2218,2223
< 
---
> 995
> 996
> 9966
> 9968
> 9969
> 9975
